Design Route Status
                                               :      # nets :
   ------------------------------------------- : ----------- :
   # of logical nets.......................... :         127 :
       # of nets not needing routing.......... :          62 :
           # of internally routed nets........ :          62 :
       # of routable nets..................... :          65 :
           # of fully routed nets............. :          65 :
       # of nets with routing errors.......... :           0 :
   ------------------------------------------- : ----------- :

